<?xml version="1.0" encoding="utf-8"?>
<!-- Generator: Adobe Illustrator 24.1.0, SVG Export Plug-In . SVG Version: 6.00 Build 0)  -->
<svg version="1.1" id="Layer_1" xmlns="http://www.w3.org/2000/svg" xmlns:xlink="http://www.w3.org/1999/xlink" x="0px" y="0px"
	 viewBox="0 0 16 9.9" style="enable-background:new 0 0 16 9.9;" xml:space="preserve">
<style type="text/css">
	.st0{fill:#1E2934;}
</style>
<g id="down-arrow" transform="translate(0 -48.907)">
	<g id="Group_3" transform="translate(0 48.907)">
		<path id="Path_24" class="st0" d="M14.1,0L8,6.1L1.9,0L0,1.9l8,8l8-8L14.1,0z"/>
	</g>
</g>
</svg>
